%YAML 1.1
%TAG !u! tag:unity3d.com,2011:
--- !u!1001 &8658913790702454113
PrefabInstance:
  m_ObjectHideFlags: 0
  serializedVersion: 2
  m_Modification:
    m_TransformParent: {fileID: 0}
    m_Modifications:
    - target: {fileID: 530762003479464284, guid: 9a5d52665c25ea64d8e7c2135d6aba5c, type: 3}
      propertyPath: m_Name
      value: DebugVCAM
      objectReference: {fileID: 0}
    - target: {fileID: 7837219455862493050, guid: 9a5d52665c25ea64d8e7c2135d6aba5c, type: 3}
      propertyPath: m_RootOrder
      value: 0
      objectReference: {fileID: 0}
    - target: {fileID: 7837219455862493050, guid: 9a5d52665c25ea64d8e7c2135d6aba5c, type: 3}
      propertyPath: m_LocalPosition.x
      value: 0
      objectReference: {fileID: 0}
    - target: {fileID: 7837219455862493050, guid: 9a5d52665c25ea64d8e7c2135d6aba5c, type: 3}
      propertyPath: m_LocalPosition.y
      value: 10
      objectReference: {fileID: 0}
    - target: {fileID: 7837219455862493050, guid: 9a5d52665c25ea64d8e7c2135d6aba5c, type: 3}
      propertyPath: m_LocalPosition.z
      value: -10
      objectReference: {fileID: 0}
    - target: {fileID: 7837219455862493050, guid: 9a5d52665c25ea64d8e7c2135d6aba5c, type: 3}
      propertyPath: m_LocalRotation.w
      value: 1
      objectReference: {fileID: 0}
    - target: {fileID: 7837219455862493050, guid: 9a5d52665c25ea64d8e7c2135d6aba5c, type: 3}
      propertyPath: m_LocalRotation.x
      value: 0
      objectReference: {fileID: 0}
    - target: {fileID: 7837219455862493050, guid: 9a5d52665c25ea64d8e7c2135d6aba5c, type: 3}
      propertyPath: m_LocalRotation.y
      value: 0
      objectReference: {fileID: 0}
    - target: {fileID: 7837219455862493050, guid: 9a5d52665c25ea64d8e7c2135d6aba5c, type: 3}
      propertyPath: m_LocalRotation.z
      value: 0
      objectReference: {fileID: 0}
    - target: {fileID: 7837219455862493050, guid: 9a5d52665c25ea64d8e7c2135d6aba5c, type: 3}
      propertyPath: m_LocalEulerAnglesHint.x
      value: 0
      objectReference: {fileID: 0}
    - target: {fileID: 7837219455862493050, guid: 9a5d52665c25ea64d8e7c2135d6aba5c, type: 3}
      propertyPath: m_LocalEulerAnglesHint.y
      value: 0
      objectReference: {fileID: 0}
    - target: {fileID: 7837219455862493050, guid: 9a5d52665c25ea64d8e7c2135d6aba5c, type: 3}
      propertyPath: m_LocalEulerAnglesHint.z
      value: 0
      objectReference: {fileID: 0}
    - target: {fileID: 8216095043748487491, guid: 9a5d52665c25ea64d8e7c2135d6aba5c, type: 3}
      propertyPath: regionsData
      value: 
      objectReference: {fileID: 11400000, guid: 613d391ae0272f14fbf58541198ce154, type: 2}
    m_RemovedComponents: []
  m_SourcePrefab: {fileID: 100100000, guid: 9a5d52665c25ea64d8e7c2135d6aba5c, type: 3}
