%YAML 1.1
%TAG !u! tag:unity3d.com,2011:
--- !u!74 &7400000
AnimationClip:
  m_ObjectHideFlags: 0
  m_CorrespondingSourceObject: {fileID: 0}
  m_PrefabInstance: {fileID: 0}
  m_PrefabAsset: {fileID: 0}
  m_Name: 10-kyle@land-normal
  serializedVersion: 6
  m_Legacy: 0
  m_Compressed: 0
  m_UseHighQualityCurve: 1
  m_RotationCurves: []
  m_CompressedRotationCurves: []
  m_EulerCurves: []
  m_PositionCurves: []
  m_ScaleCurves: []
  m_FloatCurves: []
  m_PPtrCurves:
  - curve:
    - time: 0
      value: {fileID: 2528012637165163182, guid: 3077893e1d8349c43a42ebcb76422ca3, type: 3}
    - time: 0.06666667
      value: {fileID: -8725706649574238475, guid: 3077893e1d8349c43a42ebcb76422ca3, type: 3}
    - time: 0.13333334
      value: {fileID: 1358494724436439027, guid: 3077893e1d8349c43a42ebcb76422ca3, type: 3}
    - time: 0.2
      value: {fileID: -1140321411310451769, guid: 3077893e1d8349c43a42ebcb76422ca3, type: 3}
    - time: 0.26666668
      value: {fileID: -8241117953396213055, guid: 3077893e1d8349c43a42ebcb76422ca3, type: 3}
    - time: 0.33333334
      value: {fileID: 6835728597105364016, guid: 3077893e1d8349c43a42ebcb76422ca3, type: 3}
    - time: 0.4
      value: {fileID: -7538596759656170390, guid: 3077893e1d8349c43a42ebcb76422ca3, type: 3}
    - time: 0.46666667
      value: {fileID: 200569296372704210, guid: 3077893e1d8349c43a42ebcb76422ca3, type: 3}
    - time: 0.53333336
      value: {fileID: 2387626280784155605, guid: 3077893e1d8349c43a42ebcb76422ca3, type: 3}
    - time: 0.6
      value: {fileID: -8478361048266508366, guid: 3077893e1d8349c43a42ebcb76422ca3, type: 3}
    - time: 0.65
      value: {fileID: -8478361048266508366, guid: 3077893e1d8349c43a42ebcb76422ca3, type: 3}
    attribute: m_Sprite
    path: Body
    classID: 212
    script: {fileID: 0}
  m_SampleRate: 60
  m_WrapMode: 0
  m_Bounds:
    m_Center: {x: 0, y: 0, z: 0}
    m_Extent: {x: 0, y: 0, z: 0}
  m_ClipBindingConstant:
    genericBindings:
    - serializedVersion: 2
      path: 2073732236
      attribute: 0
      script: {fileID: 0}
      typeID: 212
      customType: 23
      isPPtrCurve: 1
    pptrCurveMapping:
    - {fileID: 2528012637165163182, guid: 3077893e1d8349c43a42ebcb76422ca3, type: 3}
    - {fileID: -8725706649574238475, guid: 3077893e1d8349c43a42ebcb76422ca3, type: 3}
    - {fileID: 1358494724436439027, guid: 3077893e1d8349c43a42ebcb76422ca3, type: 3}
    - {fileID: -1140321411310451769, guid: 3077893e1d8349c43a42ebcb76422ca3, type: 3}
    - {fileID: -8241117953396213055, guid: 3077893e1d8349c43a42ebcb76422ca3, type: 3}
    - {fileID: 6835728597105364016, guid: 3077893e1d8349c43a42ebcb76422ca3, type: 3}
    - {fileID: -7538596759656170390, guid: 3077893e1d8349c43a42ebcb76422ca3, type: 3}
    - {fileID: 200569296372704210, guid: 3077893e1d8349c43a42ebcb76422ca3, type: 3}
    - {fileID: 2387626280784155605, guid: 3077893e1d8349c43a42ebcb76422ca3, type: 3}
    - {fileID: -8478361048266508366, guid: 3077893e1d8349c43a42ebcb76422ca3, type: 3}
    - {fileID: -8478361048266508366, guid: 3077893e1d8349c43a42ebcb76422ca3, type: 3}
  m_AnimationClipSettings:
    serializedVersion: 2
    m_AdditiveReferencePoseClip: {fileID: 0}
    m_AdditiveReferencePoseTime: 0
    m_StartTime: 0
    m_StopTime: 0.6666666
    m_OrientationOffsetY: 0
    m_Level: 0
    m_CycleOffset: 0
    m_HasAdditiveReferencePose: 0
    m_LoopTime: 0
    m_LoopBlend: 0
    m_LoopBlendOrientation: 0
    m_LoopBlendPositionY: 0
    m_LoopBlendPositionXZ: 0
    m_KeepOriginalOrientation: 0
    m_KeepOriginalPositionY: 1
    m_KeepOriginalPositionXZ: 0
    m_HeightFromFeet: 0
    m_Mirror: 0
  m_EditorCurves: []
  m_EulerEditorCurves: []
  m_HasGenericRootTransform: 0
  m_HasMotionFloatCurves: 0
  m_Events: []
